<?xml version="1.0" encoding="utf-8"?>
<!-- Generator: Adobe Illustrator 23.0.4, SVG Export Plug-In . SVG Version: 6.00 Build 0)  -->
<svg version="1.1" id="Calque_1" xmlns="http://www.w3.org/2000/svg" xmlns:xlink="http://www.w3.org/1999/xlink" x="0px" y="0px"
	 viewBox="0 0 954 44" style="enable-background:new 0 0 954 44;" xml:space="preserve">
<style type="text/css">
	.st0{fill:url(#SVGID_1_);}
</style>
<linearGradient id="SVGID_1_" gradientUnits="userSpaceOnUse" x1="-409.7924" y1="22" x2="675.3937" y2="22" gradientTransform="matrix(0.8791 0 0 1 360.2534 0)">
	<stop  offset="0" style="stop-color:#A2C632"/>
	<stop  offset="0.9954" style="stop-color:#EBEBEB"/>
</linearGradient>
<rect y="0" class="st0" width="954" height="44"/>
</svg>
