{
    
    "welcomeTpl" : "costum.views.custom.circuitCourt.home",
    "sourceKey" : true,
    "host" : "www.circuitcourt.re",
    "slug" : "circuitCourt",
    "favicon" : "/images/circuitCourt/logo.png",
    "metaImg" : "/images/circuitCourt/banner.png",
    "htmlConstruct" : {
        "appRendering" : "horizontal",
        "redirect" : {
            "logged" : "welcome",
            "unlogged" : "welcome"
        },
        "adminPanel" : {
            "add" : true,
            "js":true,
            "menu":{
                "statistic" : true,
                "directory" : true,
                "community": {
                    "show":true
                },
                "reference" : {
                    "show":true,
                    "initType" : [ 
                        "organizations"
                    ]
                },
                "organizations" : {
                    "label": "Structures",
                    "icon" : "users",
                    "view" : "organizations",
                    "class" : "text-green"
                }
            }
        },
        "header" : {
            "menuTop" : {
                "navLeft" : {
                    "logo" : {
                        "height" : 40
                    },
                    "searchBar" : true,
                    "useFilter" : {
                        "showFilter" : false
                    }
                },
                "navRight" : {
                    "connected" : {
                        "dropdownUser" : {
                            "languages" : false,
                            "statistics" : false,
                            "documentation" : false,
                            "donate" : false,
                            "admin" : true,
                            "settings" : true,
                            "logout" : true
                        },
                        "userProfil" : {
                            "img" : true,
                            "name" : true
                        },
                        "networkFloop" : false,
                        "notifications" : false,
                        "dda" : false,
                        "chat" : false,
                        "home" : false,
                        "app" : false,
                        "map" : false
                    },
                    "disconnected" : {
                        "languages" : false,
                        "login" : true,
                        "map" : false
                    }
                }
            }
        },
        "menuBottom" : {
            "add" : true
        }
    },
    "css" : {
        "urls" : [ 
            "circuitCourt.css"
        ],
        "loader" : {
            "background" : "white",
            "ring1" : {
                "color" : "#000",
                "height" : 360,
                "width" : 360,
                "left" : -15,
                "borderWidth" : 4,
                "top" : -35
            },
            "ring2" : {
                "color" : "#ee403b",
                "height" : 350,
                "width" : 350,
                "left" : -10,
                "borderWidth" : 5,
                "top" : -30
            }
        },
        "progress" : {
            "value" : {
                "background" : "#fada30"
            },
            "bar" : {
                "background" : "#fff"
            }
        },
        "menuTop" : {
            "background" : "white",
            "button" : {
                "paddingTop" : 0,
                "fontSize" : 30,
                "color" : "#000"
            },
            "badge" : {
                "background" : "#337ab7",
                "border" : "1px solid white"
            },
            "scopeBtn" : {
                "display" : "none"
            },
            
            "connectBtn" : {
                "background" : "#000",
                "color" : "white",
                "fontSize" : 18,
                "borderRadius" : 10,
                "padding" : "8px 15px"
            }
        },
        "menuApp" : {
            "top" : "58",
            "background" : "#ef5b2b",
            "button" : {
                "fontSize" : 25,
                "color" : "#fff",
                "hover" : {
                    "borderBottom" : "2px solid #fff"
                }
            }
        },
        "button" : {
            "footer" : {
                "add" : true
            }
        },
        "color" : {
            "green" : "#93C020",
            "blue" : "#3595a8",
            "dark" : "#161315"
        }
    },
    "app" : {
        
    },
    "filters" : {
        "sourceKey" : true
    },
    "typeObj" : {
        "organizations" : {
            "add" : true,
            "toBeValidated" : true,
            "color":"green",
            "name":"Structures",
            "dynFormCostum" : {
                "beforeBuild":{
                    "properties":{
                        
                    }
                },
                "onload" : {
                    "actions" : {
                        
                        "html" : {
                            "infocustom" : ""
                        }
                    }
                }
            }
        }
    }
}