{
    "slug" : "hva",
    "host" : "www.portailhva.org",
    "admin" :{
        "email" : "portailhva@gmail.com"
    },
    "class" : {
        "function" : [ "prepData",  "elementAfterSave" ]
    },
    "welcomeTpl" : "costum.views.custom.hva.home",
    "sourceKey" : true,
    "favicon" : "/ico/hva/favicon.ico",
    "metaImg" : "/images/hva/banner.jpg",
    "js" : {
        "urls" : [ 
            "hva.js"
        ]
    },
    "css" : {
        "urls" : [ 
            "hva.css"
        ],
        "loader" : {
            "background" : "white",
            "ring1" : {
                "color" : "#FAF8E5",
                "height" : 360,
                "width" : 360,
                "left" : -15,
                "borderWidth" : 4,
                "top" : -35
            },
            "ring2" : {
                "color" : "#EA7D24",
                "height" : 350,
                "width" : 350,
                "left" : -10,
                "borderWidth" : 5,
                "top" : -30
            }
        },
        "progress" : {
            "value" : {
                "background" : "#5b2649"
            },
            "bar" : {
                "background" : "#fff"
            }
        },
        "menuTop" : {
            "background" : "#EA7D24",
            "button" : {
                "paddingTop" : 0,
                "fontSize" : 25,
                "color" : "#213533"
            },
            "badge" : {
                "background" : "#5b2649",
                "border" : "1px solid white"
            },
            "connectBtn" : {
                "background" : "#5b2649",
                "color" : "white",
                "fontSize" : 13,
                "borderRadius" : 10,
                "padding" : "8px 15px"
            }
        },
        "menuApp" : {
            "background" : "#EA7D24",
            "fontSize" : 15,
            "button" : {
                "color" : "#213533",
                "hover" : {
                    "background" : "#FFF"
                }
            }
        },
        "button" : {
            "footer" : {
                "add" : {
                    "bottom" : 25,
                    "background" : "#EA7D24",
                    "color" : "white"
                },
                "toolbarAdds" : {
                    "bottom" : 30
                }
            }
        },
        "color" : {
            "purple" : "#213533"
        }
    },
    "htmlConstruct" : {
        "appRendering" : "horizontal",
        "add" : [ 
            "event", 
            "organization", 
            "classifieds"
        ],
        "subMenu" : false,
        "header" : {
            "banner" : "costum.views.custom.header.banner.hva",
            "menuTop" : {
                "navLeft" : {
                    "searchBar" : false,
                    "useFilter" : {
                        "scopeFilter" : false,
                        "showFilter" : false
                    },
                    "app" : {
                        "paddingLeft" : "30px",
                        "button" : {
                            "fontSize" : 18,
                            "fontWeight" : 800,
                            "paddingBottom" : "0px",
                            "marginLeft" : "10px",
                            "textTransform" : "uppercase",
                            "color" : "#5b2649"
                        }
                    }
                },
                "navRight" : {
                    "connected" : {
                        "dropdownUser" : {
                            "languages" : true,
                            "statistics" : false,
                            "documentation" : false,
                            "donate" : false,
                            "admin" : true,
                            "settings" : false,
                            "logout" : true
                        },
                        "userProfil" : {
                            "img" : true,
                            "name" : false
                        },
                        "networkFloop" : true,
                        "notifications" : true,
                        "dda" : false,
                        "chat" : true,
                        "home" : false,
                        "app" : false
                    },
                    "disconnected" : {
                        "languages" : true,
                        "login" : true
                    }
                }
            }
        },
        "menuBottom" : {
            "add" : false,
            "donate" : false
        },
        "adminPanel" : {
            "js":true,
            "add" : false,
            "menu":{
                "statistic" : true,
                "directory" : false,
                "community" : {"label": "Membres", "show":true, "class" : "text-yellow"},
                "group" : {
                    "label" : "Organisations",
                    "costumAdmin" : true,
                    "class" : "text-dark",
                    "href" : "javascript:;",
                    "icon" : "group",
                    "view" : "group"
                },
                "events" : {
                    "label" : "Evénements",
                    "costumAdmin" : true,
                    "class" : "text-orange",
                    "href" : "javascript:;",
                    "icon" : "calendar",
                    "view" : "events"
                },
                "annonces" : {
                    "label" : "Annonces",
                    "costumAdmin" : true,
                    "class" : "text-blue",
                    "href" : "javascript:;",
                    "icon" : "bullhorn",
                    "view" : "annonces"
                }
            }
        },
        "directoryViewMode" : "list",
        "directory" : {
            "filters" : {
                "tagsList" : {
                    "rendering" : "vertical"
                }
            },
            "header" : {
                "map" : true,
                "searchTypeHtml" : true,
                "viewMode" : false,
                "add" : {
                    "events" : true,
                    "organizations" : true,
                    "classifieds" : true
                }
            },
            "footer" : {
                "add" : {
                    "event" : true,
                    "organization" : true,
                    "classifieds" : true
                }
            }
        },
        "element" : {
            "js" : "about.js",
            "initView" : "detail",
            "viewMode" : false,
            "menuLeft" : {
                "detail" : true,
                "gallery" : true,
                "community" : true,
                "events": true,
                "classifieds": true
            },
            "menuTop" : { 
                "img":true,
                "btnGroup":{
                    "imgProfil":true,
                    "nameProfil":true,
                    "newspaper" : true,
                    "cospace":false,
                    "chat":true,
                    "create":true,
                    "params" : {
                        "dropdown":{
                            "history" : true,
                            "editSlug" : true,
                            "delete" : true
                        }
                    }
                }
            }
        },
        "redirect" : {
            "logged" : "agenda",
            "unlogged" : "agenda"
        }
    },
    "app" : {
        "#agenda" : {
            "hash" : "#app.agenda",
            "icon" : "",
            "inMenu" : true,
            "viewMode" : "list",
            "subdomainName" : "Agenda",
            "placeholderMainSearch" : "Agenda",
            "tagsList" : "tagsO",
            "useFilter" : false,
            "calendar" : {
                "renderingCalendar" : "bottom",
                "js":"calendar.js",
                "css":"calendar.css"
            }
        },
        "#search" : {
            "icon" : "",
            "subdomainName" : "Répertoire",
            "placeholderMainSearch" : "Répertoire",
            "tagsList" : "tagsO",
            "useFilter" : false,
            "filters" : {
                "types" : [
                    "organizations"
                ]
            },
            "searchObject" : {
                "sortBy" : [ 
                    "name"
                ]
            }
        },
        "#annonces" : {
            "subdomainName" : "Annonces",
            "icon" : "",
            "tagsList" : "tagsClassifields",
            "useFilter" : false
        },
        "#who" : {
            "subdomainName" : "Nous Rejoindre",
            "placeholderMainSearch" : "Nous Rejoindre",
            "hash" : "#app.view",
            "icon" : "",
            "urlExtra" : "/page/who/url/costum.views.custom.hva.who",
            "useHeader" : true,
            "useFilter" : false,
            "inMenu" : true
        },
        "#contact" : {
            "hash" : "#app.view",
            "icon" : "",
            "urlExtra" : "/page/contact/url/costum.views.custom.hva.contact",
            "useHeader" : true,
            "useFilter" : false,
            "inMenu" : true,
            "subdomainName" : "Nous Contacter",
            "placeholderMainSearch" : "Nous Contacter"
        },
        "#mention" : {
            "subdomainName" : "Mentions légales",
            "placeholderMainSearch" : "Mentions légales",
            "hash" : "#app.view",
            "icon" : "",
            "urlExtra" : "/page/joint/url/costum.views.custom.hva.mention",
            "useHeader" : true,
            "useFilter" : false,
            "inMenu" : true
        }
    },
    "filters" : {
        "sourceKey" : true
    },
    "typeObj" : {
        "event" : {
            "validatedParent" : true,
            "add" : true,
            "toBeValidated" : true,
            "canAdd" : "members",
            "dynFormCostum" : {
                "filters" : {
                    "locations" : {
                        "subParams" : {
                            "cities" : {
                                "type" : [ 
                                    "cities"
                                ],
                                "country" : [ 
                                    "RE"
                                ],
                                "cp" : true
                            }
                        }
                    }
                },
                "beforeBuild" : {
                    "properties" : {
                        "name":{
                            "maxlength" : 60
                        },
                        "tags" : {
                            "inputType" : "tags",
                            "label" : "Catégorie",
                            "placeholder" : "Choisir une catégorie",
                            "minimumInputLength" : 0,
                            "tagsList" : "tagsO",
                            "maximumSelectionLength" : 2
                        },
                        "organizer" : {
                            "initType": ["organizations"],
                            "initElt" : true,
                            "initMe" : false,
                            "toBeValidated" : true,
                            "openSearch" : false
                        },
                        "preferences[isOpenEdition]" : {
                            "inputType" : "hidden",
                            "value" : false
                        }
                    }
                },
                "onload" : {
                    "actions" : {
                        "required" : {
                            "organizer" : 1
                        },
                        "hide" : {
                            "typeselect" : true,
                            "parentfinder" : true,
                            "publiccheckboxSimple" :  true,
                            "allDaycheckbox" : true
                        },
                        "presetValue" : {
                            "type" : "others"
                        }
                    }
                }
            }
        },
        "organization" : {
            "add" : true,
            "toBeValidated" : true,
            "canAdd" : "members",
            "dynFormCostum" : {
                "filters" : {
                    "locations" : {
                        "subParams" : {
                            "cities" : {
                                "type" : [ 
                                    "cities"
                                ],
                                "country" : [ 
                                    "RE"
                                ],
                                "cp" : true
                            }
                        }
                    }
                },
                "beforeBuild" : {
                    "properties" : {
                        "tags" : {
                            "inputType" : "tags",
                            "label" : "Catégorie",
                            "placeholder" : "Choisir une catégorie",
                            "minimumInputLength" : 0,
                            "tagsList" : "tagsO",
                            "maximumSelectionLength" : 2
                        },
                        "preferences[isOpenEdition]" : {
                            "inputType" : "hidden",
                            "value" : false
                        }
                    }
                }
            }
        },
        "classifieds" : {
            "validatedParent" : true,
            "add" : true,
            "toBeValidated" : true,
            "canAdd" : "members",
            "dynFormCostum" : {
                "beforeBuild" : {
                    "properties" : {
                        "tags" : {
                            "inputType" : "tags",
                            "label" : "Catégorie",
                            "placeholder" : "Choisir une catégorie",
                            "minimumInputLength" : 0,
                            "tagsList" : "tagsClassifields",
                            "maximumSelectionLength" : 2,
                            "order" : 13
                        },
                        "parent" : {
                            "initElt" : true,
                            "notMe" : false
                        }
                    }
                },
                "onload" : {
                    "actions" : {
                        "required" : {
                            "parent" : 1
                        },
                        "presetValue" : {
                            "section" : "forsale",
                            "category" : "home",
                            "subtype" : "various"
                        },
                        "hide" : {
                            "breadcrumbcustom" : 1,
                            "deviseselect" : 1,
                            "pricetext" : 1
                        }
                    }
                }
            }
        }
    },
    "json" : {
        "tagsO" : "tagsO",
        "tagsClassifields" : "tagsClassifields"
    },
    "paramsData" : {
        "tagsO" : {
            "Agriculture Pêche Forêt" : {
                "color" : "#489131"
            },
            "Alimentation Consommation" : {
                "color" : "#452E9B"
            },
            "Art Artisanat" : {
                "color" : "#eab7e4"
            },
            "Communication" : {
                "color" : "#806554"
            },
            "Construction Habitat" : {
                "color" : "#BD5DB1"
            },
            "Culture Patrimoine" : {
                "color" : "#8F848C"
            },
            "Education Populaire" : {
                "color" : "#F4CF0F"
            },
            "Environnement Ecologie" : {
                "color" : " #2EA33A"
            },
            "Mobilité Transport" : {
                "color" : "#7527A0"
            },
            "Social Citoyenneté" : {
                "color" : "#D64623"
            },
            "Soin Santé" : {
                "color" : "#C99A14"
            },
            "Spiritualité Esotérisme" : {
                "color" : "#61C891"
            }
        },
        "tagsClassifields" : {
            "Don" : {
                "color" : "#499032"
            },
            "Echange" : {
                "color" : "#96D522"
            },
            "Bénévolat" : {
                "color" : "#806558"
            },
            "Prêt" : {
                "color" : "#BB5CB9"
            },
            "Location" : {
                "color" : "#8C8490"
            },
            "Achat" : {
                "color" : "#45308E"
            },
            "Vente" : {
                "color" : " #F08D28"
            },
            "Emploi" : {
                "color" : "#D9441F"
            },
            "Autre" : {
                "color" : "#EC098C"
            }
        }
    }
}