    {
        "_id" : ObjectId("5d4d07232f6266f5048b456c"),
        "contextId" : "5d0b6b7fa1d9f073798b4568",
        "contextType" : "organizations",
        "name" : "Action personnelles",
        "created" : NumberLong(1565329187),
        "updated" : NumberLong(1565329187),
        "docType" : "smarterre.dechets"
    }
    {
        "_id" : ObjectId("5d4d07352f6266ad068b4567"),
        "contextId" : "5d0b6b7fa1d9f073798b4568",
        "contextType" : "organizations",
        "name" : "Préférer les produits non suremballés (vrac, légumes, marché...)",
        "created" : NumberLong(1565329205),
        "updated" : NumberLong(1565329205),
        "parentId" : "5d4d07232f6266f5048b456c",
        "docType" : "smarterre.dechets"
    }
    {
        "_id" : ObjectId("5d4d074c2f626620068b456a"),
        "contextId" : "5d0b6b7fa1d9f073798b4568",
        "contextType" : "organizations",
        "name" : "Prendre cabat, barquette réutilisable, paniers... à proposer son commerçant pour remplacer son contenant jetable",
        "created" : NumberLong(1565329228),
        "updated" : NumberLong(1565329228),
        "parentId" : "5d4d07232f6266f5048b456c",
        "docType" : "smarterre.dechets"
    }
    {
        "_id" : ObjectId("5d4d075b2f626627068b456c"),
        "contextId" : "5d0b6b7fa1d9f073798b4568",
        "contextType" : "organizations",
        "name" : "Participer ou organiser un défi famille zéro déchet",
        "created" : NumberLong(1565329243),
        "updated" : NumberLong(1565329243),
        "parentId" : "5d4d07232f6266f5048b456c",
        "docType" : "smarterre.dechets"
    }
    {
        "_id" : ObjectId("5d4d082f2f626608068b4569"),
        "contextId" : "5d0b6b7fa1d9f073798b4568",
        "contextType" : "organizations",
        "name" : "Plateforme zero waste de quartier",
        "created" : NumberLong(1565329455),
        "updated" : NumberLong(1565329455),
        "docType" : "smarterre.dechets"
    }
    {
        "_id" : ObjectId("5d4d083d2f626606068b456e"),
        "contextId" : "5d0b6b7fa1d9f073798b4568",
        "contextType" : "organizations",
        "name" : "Composteur collectif avec maître composteur",
        "created" : NumberLong(1565329469),
        "updated" : NumberLong(1565329469),
        "parentId" : "5d4d082f2f626608068b4569",
        "docType" : "smarterre.dechets"
    }
    {
        "_id" : ObjectId("5d4d08532f6266f3048b456a"),
        "contextId" : "5d0b6b7fa1d9f073798b4568",
        "contextType" : "organizations",
        "name" : "Broyeur de végétaux partagé",
        "created" : NumberLong(1565329491),
        "updated" : NumberLong(1565329491),
        "parentId" : "5d4d082f2f626608068b4569",
        "docType" : "smarterre.dechets"
    }
    {
        "_id" : ObjectId("5d4d08652f6266b2068b4567"),
        "contextId" : "5d0b6b7fa1d9f073798b4568",
        "contextType" : "organizations",
        "name" : "Bibliothèque d'outils - économie de la fonctionnalité",
        "created" : NumberLong(1565329509),
        "updated" : NumberLong(1565329509),
        "parentId" : "5d4d082f2f626608068b4569",
        "docType" : "smarterre.dechets"
    }
    {
        "_id" : ObjectId("5d4d08742f626624078b4567"),
        "contextId" : "5d0b6b7fa1d9f073798b4568",
        "contextType" : "organizations",
        "name" : "Reparali Kafé régulier pour réparer et éviter de jeter",
        "created" : NumberLong(1565329524),
        "updated" : NumberLong(1565329524),
        "parentId" : "5d4d082f2f626608068b4569",
        "docType" : "smarterre.dechets"
    }
    {
        "_id" : ObjectId("5d4d08922f626620068b456b"),
        "contextId" : "5d0b6b7fa1d9f073798b4568",
        "contextType" : "organizations",
        "name" : "Epicerie coopérative / collaborative vrac et local",
        "created" : NumberLong(1565329554),
        "updated" : NumberLong(1565329554),
        "parentId" : "5d4d082f2f626608068b4569",
        "docType" : "smarterre.dechets"
    }
    {
        "_id" : ObjectId("5d4d08a22f6266a8068b4567"),
        "contextId" : "5d0b6b7fa1d9f073798b4568",
        "contextType" : "organizations",
        "name" : "Espace de don d'objets",
        "created" : NumberLong(1565329570),
        "updated" : NumberLong(1565329570),
        "parentId" : "5d4d082f2f626608068b4569",
        "docType" : "smarterre.dechets"
    }
    {
        "_id" : ObjectId("5d4d08ac2f626608068b456a"),
        "contextId" : "5d0b6b7fa1d9f073798b4568",
        "contextType" : "organizations",
        "name" : "Adapté en fonction des besoins citoyens",
        "created" : NumberLong(1565329580),
        "updated" : NumberLong(1565329580),
        "parentId" : "5d4d082f2f626608068b4569",
        "docType" : "smarterre.dechets"
    }
    {
        "_id" : ObjectId("5d4d08ba2f6266f3048b456b"),
        "contextId" : "5d0b6b7fa1d9f073798b4568",
        "contextType" : "organizations",
        "name" : "Fablab - Fabrication d'objets (meubles, électroménager) en open hardware",
        "created" : NumberLong(1565329594),
        "updated" : NumberLong(1565329594),
        "parentId" : "5d4d082f2f626608068b4569",
        "docType" : "smarterre.dechets"
    }
    {
        "_id" : ObjectId("5d4d09412f6266f3048b456c"),
        "contextId" : "5d0b6b7fa1d9f073798b4568",
        "contextType" : "organizations",
        "name" : "Générateur d'emploi",
        "created" : NumberLong(1565329729),
        "updated" : NumberLong(1565329729),
        "docType" : "smarterre.dechets"
    }
    {
        "_id" : ObjectId("5d4d09562f626627068b456d"),
        "contextId" : "5d0b6b7fa1d9f073798b4568",
        "contextType" : "organizations",
        "name" : "Sas de déchèterie / Recyclerie : avant de jeter essayer de réparer / réutiliser",
        "created" : NumberLong(1565329750),
        "updated" : NumberLong(1565329750),
        "parentId" : "5d4d09412f6266f3048b456c",
        "docType" : "smarterre.dechets"
    }
    {
        "_id" : ObjectId("5d4d09742f626627078b4567"),
        "contextId" : "5d0b6b7fa1d9f073798b4568",
        "contextType" : "organizations",
        "name" : "Ressourcerie : créer une bibliothèque de pièces détachées",
        "created" : NumberLong(1565329780),
        "updated" : NumberLong(1565329780),
        "parentId" : "5d4d09412f6266f3048b456c",
        "docType" : "smarterre.dechets"
    }
    {
        "_id" : ObjectId("5d4d098c2f626624078b4568"),
        "contextId" : "5d0b6b7fa1d9f073798b4568",
        "contextType" : "organizations",
        "name" : "Concours d'éco-conception d'objets produit localement sans déchet",
        "created" : NumberLong(1565329804),
        "updated" : NumberLong(1565329804),
        "parentId" : "5d4d09412f6266f3048b456c",
        "docType" : "smarterre.dechets"
    }
    {
        "_id" : ObjectId("5d4d099c2f626608068b456b"),
        "contextId" : "5d0b6b7fa1d9f073798b4568",
        "contextType" : "organizations",
        "name" : "Filière de recyclage local (avec coopérative région OI)",
        "created" : NumberLong(1565329820),
        "updated" : NumberLong(1565329820),
        "parentId" : "5d4d09412f6266f3048b456c",
        "docType" : "smarterre.dechets"
    }
    {
        "_id" : ObjectId("5d4d09a82f626620068b456c"),
        "contextId" : "5d0b6b7fa1d9f073798b4568",
        "contextType" : "organizations",
        "name" : "Citoyen Récoltant",
        "created" : NumberLong(1565329832),
        "updated" : NumberLong(1565329832),
        "parentId" : "5d4d09412f6266f3048b456c",
        "docType" : "smarterre.dechets"
    }
    {
        "_id" : ObjectId("5d4d09b12f6266f3048b456d"),
        "contextId" : "5d0b6b7fa1d9f073798b4568",
        "contextType" : "organizations",
        "name" : "Valoriser la production locale (centre de transformation partagé)",
        "created" : NumberLong(1565329841),
        "updated" : NumberLong(1565329841),
        "parentId" : "5d4d09412f6266f3048b456c",
        "docType" : "smarterre.dechets"
    }
    {
        "_id" : ObjectId("5d4d0a352f626627078b4568"),
        "contextId" : "5d0b6b7fa1d9f073798b4568",
        "contextType" : "organizations",
        "name" : "Alimentation",
        "created" : NumberLong(1565329973),
        "updated" : NumberLong(1565329973),
        "docType" : "smarterre.dechets"
    }
    {
        "_id" : ObjectId("5d4d0a3d2f6266b2068b4568"),
        "contextId" : "5d0b6b7fa1d9f073798b4568",
        "contextType" : "organizations",
        "name" : "Production ultra locale interconnectée / jardin partagé urbain",
        "created" : NumberLong(1565329981),
        "updated" : NumberLong(1565329981),
        "parentId" : "5d4d0a352f626627078b4568",
        "docType" : "smarterre.dechets"
    }
    {
        "_id" : ObjectId("5d4d0a452f6266a8068b4568"),
        "contextId" : "5d0b6b7fa1d9f073798b4568",
        "contextType" : "organizations",
        "name" : "Légumes frais et localement produits (pas de suremballage)",
        "created" : NumberLong(1565329989),
        "updated" : NumberLong(1565329989),
        "parentId" : "5d4d0a3d2f6266b2068b4568",
        "docType" : "smarterre.dechets"
    }
    {
        "_id" : ObjectId("5d4d0a4d2f626624078b4569"),
        "contextId" : "5d0b6b7fa1d9f073798b4568",
        "contextType" : "organizations",
        "name" : "Créer le besoin d'un compost",
        "created" : NumberLong(1565329997),
        "updated" : NumberLong(1565329997),
        "parentId" : "5d4d0a3d2f6266b2068b4568",
        "docType" : "smarterre.dechets"
    }
    {
        "_id" : ObjectId("5d4d0a792f626608068b456c"),
        "contextId" : "5d0b6b7fa1d9f073798b4568",
        "contextType" : "organizations",
        "name" : "Education",
        "created" : NumberLong(1565330041),
        "updated" : NumberLong(1565330041),
        "docType" : "smarterre.dechets"
    }
    {
        "_id" : ObjectId("5d4d0a822f626605068b456d"),
        "contextId" : "5d0b6b7fa1d9f073798b4568",
        "contextType" : "organizations",
        "name" : "Mise en place de cours de gestion des déchets dès la petite enfance",
        "created" : NumberLong(1565330050),
        "updated" : NumberLong(1565330050),
        "parentId" : "5d4d0a792f626608068b456c",
        "docType" : "smarterre.dechets"
    }
    {
        "_id" : ObjectId("5d4d0a8d2f626620068b456d"),
        "contextId" : "5d0b6b7fa1d9f073798b4568",
        "contextType" : "organizations",
        "name" : "Ludification du tri",
        "created" : NumberLong(1565330061),
        "updated" : NumberLong(1565330061),
        "parentId" : "5d4d0a792f626608068b456c",
        "docType" : "smarterre.dechets"
    }
    {
        "_id" : ObjectId("5d4d0a972f6266f3048b456e"),
        "contextId" : "5d0b6b7fa1d9f073798b4568",
        "contextType" : "organizations",
        "name" : "Valorisation des déchets",
        "created" : NumberLong(1565330071),
        "updated" : NumberLong(1565330071),
        "docType" : "smarterre.dechets"
    }
    {
        "_id" : ObjectId("5d4d0aa12f626627068b456e"),
        "contextId" : "5d0b6b7fa1d9f073798b4568",
        "contextType" : "organizations",
        "name" : "Consigne bouteille",
        "created" : NumberLong(1565330081),
        "updated" : NumberLong(1565330081),
        "parentId" : "5d4d0a972f6266f3048b456e",
        "docType" : "smarterre.dechets"
    }
    {
        "_id" : ObjectId("5d4d0ab02f6266ad068b4568"),
        "contextId" : "5d0b6b7fa1d9f073798b4568",
        "contextType" : "organizations",
        "name" : "Donner une valeur aux objets qui peuvent être recyclés (métaux, cartons, plastiques, batteries...)",
        "created" : NumberLong(1565330096),
        "updated" : NumberLong(1565330096),
        "parentId" : "5d4d0a972f6266f3048b456e",
        "docType" : "smarterre.dechets"
    }
    {
        "_id" : ObjectId("5d4d0aba2f626627078b4569"),
        "contextId" : "5d0b6b7fa1d9f073798b4568",
        "contextType" : "organizations",
        "name" : "Réseau de poubelle à tri, en sortie de supermarché et point de récolte en commune",
        "created" : NumberLong(1565330106),
        "updated" : NumberLong(1565330106),
        "parentId" : "5d4d0a972f6266f3048b456e",
        "docType" : "smarterre.dechets"
    }
    {
        "_id" : ObjectId("5d4d0ac72f6266a8068b4569"),
        "contextId" : "5d0b6b7fa1d9f073798b4568",
        "contextType" : "organizations",
        "name" : "Eviter le gaspillage",
        "created" : NumberLong(1565330119),
        "updated" : NumberLong(1565330119),
        "docType" : "smarterre.dechets"
    }
    {
        "_id" : ObjectId("5d4d0acf2f626624078b456a"),
        "contextId" : "5d0b6b7fa1d9f073798b4568",
        "contextType" : "organizations",
        "name" : "Cours de cuisine des restes + manuel de l'antigaspi",
        "created" : NumberLong(1565330127),
        "updated" : NumberLong(1565330127),
        "parentId" : "5d4d0ac72f6266a8068b4569",
        "docType" : "smarterre.dechets"
    }
    {
        "_id" : ObjectId("5d4d0ada2f626608068b456d"),
        "contextId" : "5d0b6b7fa1d9f073798b4568",
        "contextType" : "organizations",
        "name" : "Compost / Déshydrateur dans les restaurants / cantines",
        "created" : NumberLong(1565330138),
        "updated" : NumberLong(1565330138),
        "parentId" : "5d4d0ac72f6266a8068b4569",
        "docType" : "smarterre.dechets"
    }
    {
        "_id" : ObjectId("5d4d0ae12f626608068b456e"),
        "contextId" : "5d0b6b7fa1d9f073798b4568",
        "contextType" : "organizations",
        "name" : "Encouragements",
        "created" : NumberLong(1565330145),
        "updated" : NumberLong(1565330145),
        "docType" : "smarterre.dechets"
    }
    {
        "_id" : ObjectId("5d4d0aef2f626605068b456e"),
        "contextId" : "5d0b6b7fa1d9f073798b4568",
        "contextType" : "organizations",
        "name" : "Tarification incitative : moins je produits de déchets, moins je paie",
        "created" : NumberLong(1565330159),
        "updated" : NumberLong(1565330159),
        "parentId" : "5d4d0ae12f626608068b456e",
        "docType" : "smarterre.dechets"
    }
    {
        "_id" : ObjectId("5d4d0b012f6266f3048b456f"),
        "contextId" : "5d0b6b7fa1d9f073798b4568",
        "contextType" : "organizations",
        "name" : "Faire la promotion des couches lavables (50% de moins en TOM pour les familles utilisant des couches lavables",
        "created" : NumberLong(1565330177),
        "updated" : NumberLong(1565330177),
        "parentId" : "5d4d0ae12f626608068b456e",
        "docType" : "smarterre.dechets"
    }
    {
        "_id" : ObjectId("5d4d0b162f626627068b456f"),
        "contextId" : "5d0b6b7fa1d9f073798b4568",
        "contextType" : "organizations",
        "name" : "Monnaie locale éco-citoyenne : un éco-geste = un éco-citoyen échangeable",
        "created" : NumberLong(1565330198),
        "updated" : NumberLong(1565330198),
        "parentId" : "5d4d0ae12f626608068b456e",
        "docType" : "smarterre.dechets"
    }
    {
        "_id" : ObjectId("5d4d0b292f6266b2068b4569"),
        "contextId" : "5d0b6b7fa1d9f073798b4568",
        "contextType" : "organizations",
        "name" : "Police de l'environnement régionale pour synchroniser les actions des polices départementales et municipales",
        "created" : NumberLong(1565330217),
        "updated" : NumberLong(1565330217),
        "parentId" : "5d4d0ae12f626608068b456e",
        "docType" : "smarterre.dechets"
    }